module AudioBlob = Audio__AudioBlob
module AudioContext = Audio__AudioContext
module AudioNode = Audio__AudioNode
module AudioParam = Audio__AudioParam
module MediaRecorder = Audio__MediaRecorder
module MediaStream = Audio__MediaStream
module AudioWorklet = Audio__AudioWorklet
module AudioWorkletNode = Audio__AudioWorkletNode
module AudioWorkletMessagePort = Audio__AudioWorkletMessagePort
